^D:\MOJE PLIKI\ATH\4 SEM\GRAFIKA\GIT\SPRAWOZDANIE4\ZAD1\CONSOLEAPPLICATION4\STDAFX.CPP
/c /I"D:\MOJE PLIKI\ATH\4 SEM\GRAFIKA\GIT\SPRAWOZDANIE4\ZAD1\PACKAGES\NUPENGL.CORE.0.1.0.1\BUILD\NATIVE\../..//BUILD/NATIVE/INCLUDE/" /ZI /nologo /W3 /WX- /diagnostics:classic /sdl /Od /Oy- /D WIN32 /D _DEBUG /D _CONSOLE /D _UNICODE /D UNICODE /Gm /EHsc /RTC1 /MDd /GS /fp:precise /Zc:wchar_t /Zc:forScope /Zc:inline /Yc"stdafx.h" /Fp"DEBUG\CONSOLEAPPLICATION4.PCH" /Fo"DEBUG\\" /Fd"DEBUG\VC141.PDB" /Gd /TP /analyze- D:\MOJE PLIKI\ATH\4 SEM\GRAFIKA\GIT\SPRAWOZDANIE4\ZAD1\CONSOLEAPPLICATION4\STDAFX.CPP
^D:\MOJE PLIKI\ATH\4 SEM\GRAFIKA\GIT\SPRAWOZDANIE4\ZAD1\CONSOLEAPPLICATION4\CONSOLEAPPLICATION4.CPP
/c /I"D:\MOJE PLIKI\ATH\4 SEM\GRAFIKA\GIT\SPRAWOZDANIE4\ZAD1\PACKAGES\NUPENGL.CORE.0.1.0.1\BUILD\NATIVE\../..//BUILD/NATIVE/INCLUDE/" /ZI /nologo /W3 /WX- /diagnostics:classic /sdl /Od /Oy- /D WIN32 /D _DEBUG /D _CONSOLE /D _UNICODE /D UNICODE /Gm /EHsc /RTC1 /MDd /GS /fp:precise /Zc:wchar_t /Zc:forScope /Zc:inline /Yu"stdafx.h" /Fp"DEBUG\CONSOLEAPPLICATION4.PCH" /Fo"DEBUG\\" /Fd"DEBUG\VC141.PDB" /Gd /TP /analyze- D:\MOJE PLIKI\ATH\4 SEM\GRAFIKA\GIT\SPRAWOZDANIE4\ZAD1\CONSOLEAPPLICATION4\CONSOLEAPPLICATION4.CPP
^D:\MOJE PLIKI\ATH\4 SEM\GRAFIKA\GIT\SPRAWOZDANIE4\ZAD1\CONSOLEAPPLICATION4\TARGA.CPP
/c /I"D:\MOJE PLIKI\ATH\4 SEM\GRAFIKA\GIT\SPRAWOZDANIE4\ZAD1\PACKAGES\NUPENGL.CORE.0.1.0.1\BUILD\NATIVE\../..//BUILD/NATIVE/INCLUDE/" /ZI /nologo /W3 /WX- /diagnostics:classic /sdl /Od /Oy- /D WIN32 /D _DEBUG /D _CONSOLE /D _UNICODE /D UNICODE /Gm /EHsc /RTC1 /MDd /GS /fp:precise /Zc:wchar_t /Zc:forScope /Zc:inline /Yu"stdafx.h" /Fp"DEBUG\CONSOLEAPPLICATION4.PCH" /Fo"DEBUG\\" /Fd"DEBUG\VC141.PDB" /Gd /TP /analyze- D:\MOJE PLIKI\ATH\4 SEM\GRAFIKA\GIT\SPRAWOZDANIE4\ZAD1\CONSOLEAPPLICATION4\TARGA.CPP
