^D:\MOJE PLIKI\ATH\4 SEM\GRAFIKA\GIT\SPRAWOZDANIE4\ZAD1\CONSOLEAPPLICATION4\STDAFX.CPP
D:\MOJE PLIKI\ATH\4 SEM\GRAFIKA\GIT\SPRAWOZDANIE4\ZAD1\CONSOLEAPPLICATION4\DEBUG\CONSOLEAPPLICATION4.PCH
D:\MOJE PLIKI\ATH\4 SEM\GRAFIKA\GIT\SPRAWOZDANIE4\ZAD1\CONSOLEAPPLICATION4\DEBUG\VC141.PDB
D:\MOJE PLIKI\ATH\4 SEM\GRAFIKA\GIT\SPRAWOZDANIE4\ZAD1\CONSOLEAPPLICATION4\DEBUG\VC141.IDB
D:\MOJE PLIKI\ATH\4 SEM\GRAFIKA\GIT\SPRAWOZDANIE4\ZAD1\CONSOLEAPPLICATION4\DEBUG\STDAFX.OBJ
^D:\MOJE PLIKI\ATH\4 SEM\GRAFIKA\GIT\SPRAWOZDANIE4\ZAD1\CONSOLEAPPLICATION4\CONSOLEAPPLICATION4.CPP|D:\MOJE PLIKI\ATH\4 SEM\GRAFIKA\GIT\SPRAWOZDANIE4\ZAD1\CONSOLEAPPLICATION4\TARGA.CPP
D:\MOJE PLIKI\ATH\4 SEM\GRAFIKA\GIT\SPRAWOZDANIE4\ZAD1\CONSOLEAPPLICATION4\DEBUG\VC141.PDB
D:\MOJE PLIKI\ATH\4 SEM\GRAFIKA\GIT\SPRAWOZDANIE4\ZAD1\CONSOLEAPPLICATION4\DEBUG\VC141.IDB
D:\MOJE PLIKI\ATH\4 SEM\GRAFIKA\GIT\SPRAWOZDANIE4\ZAD1\CONSOLEAPPLICATION4\DEBUG\TARGA.OBJ
^D:\MOJE PLIKI\ATH\4 SEM\GRAFIKA\GIT\SPRAWOZDANIE4\ZAD1\CONSOLEAPPLICATION4\CONSOLEAPPLICATION4.CPP
D:\MOJE PLIKI\ATH\4 SEM\GRAFIKA\GIT\SPRAWOZDANIE4\ZAD1\CONSOLEAPPLICATION4\DEBUG\VC141.PDB
D:\MOJE PLIKI\ATH\4 SEM\GRAFIKA\GIT\SPRAWOZDANIE4\ZAD1\CONSOLEAPPLICATION4\DEBUG\VC141.IDB
D:\MOJE PLIKI\ATH\4 SEM\GRAFIKA\GIT\SPRAWOZDANIE4\ZAD1\CONSOLEAPPLICATION4\DEBUG\CONSOLEAPPLICATION4.OBJ
^D:\MOJE PLIKI\ATH\4 SEM\GRAFIKA\GIT\SPRAWOZDANIE4\ZAD1\CONSOLEAPPLICATION4\TARGA.CPP
D:\MOJE PLIKI\ATH\4 SEM\GRAFIKA\GIT\SPRAWOZDANIE4\ZAD1\CONSOLEAPPLICATION4\DEBUG\VC141.PDB
D:\MOJE PLIKI\ATH\4 SEM\GRAFIKA\GIT\SPRAWOZDANIE4\ZAD1\CONSOLEAPPLICATION4\DEBUG\VC141.IDB
D:\MOJE PLIKI\ATH\4 SEM\GRAFIKA\GIT\SPRAWOZDANIE4\ZAD1\CONSOLEAPPLICATION4\DEBUG\TARGA.OBJ
