^C:\USERS\JA\DESKTOP\NOWY FOLDER\SPRAWOZDANIE4\ZAD1\CONSOLEAPPLICATION4\X64\DEBUG\CONSOLEAPPLICATION4.OBJ|C:\USERS\JA\DESKTOP\NOWY FOLDER\SPRAWOZDANIE4\ZAD1\CONSOLEAPPLICATION4\X64\DEBUG\STDAFX.OBJ|C:\USERS\JA\DESKTOP\NOWY FOLDER\SPRAWOZDANIE4\ZAD1\CONSOLEAPPLICATION4\X64\DEBUG\TARGA.OBJ
C:\USERS\JA\DESKTOP\NOWY FOLDER\SPRAWOZDANIE4\ZAD1\X64\DEBUG\CONSOLEAPPLICATION4.EXE
C:\USERS\JA\DESKTOP\NOWY FOLDER\SPRAWOZDANIE4\ZAD1\X64\DEBUG\CONSOLEAPPLICATION4.ILK
C:\USERS\JA\DESKTOP\NOWY FOLDER\SPRAWOZDANIE4\ZAD1\X64\DEBUG\CONSOLEAPPLICATION4.PDB
^C:\USERS\JA\DESKTOP\GK PROJEKTY\SPRAWOZDANIE 4\ZAD1\CONSOLEAPPLICATION4\X64\DEBUG\CONSOLEAPPLICATION4.OBJ|C:\USERS\JA\DESKTOP\GK PROJEKTY\SPRAWOZDANIE 4\ZAD1\CONSOLEAPPLICATION4\X64\DEBUG\STDAFX.OBJ|C:\USERS\JA\DESKTOP\GK PROJEKTY\SPRAWOZDANIE 4\ZAD1\CONSOLEAPPLICATION4\X64\DEBUG\TARGA.OBJ
C:\USERS\JA\DESKTOP\GK PROJEKTY\SPRAWOZDANIE 4\ZAD1\X64\DEBUG\CONSOLEAPPLICATION4.EXE
C:\USERS\JA\DESKTOP\GK PROJEKTY\SPRAWOZDANIE 4\ZAD1\X64\DEBUG\CONSOLEAPPLICATION4.ILK
C:\USERS\JA\DESKTOP\GK PROJEKTY\SPRAWOZDANIE 4\ZAD1\X64\DEBUG\CONSOLEAPPLICATION4.PDB
