^C:\USERS\JA\DESKTOP\NOWY FOLDER\SPRAWOZDANIE3\ZAD3\ZAD3\CONSOLEAPPLICATION4\X64\DEBUG\CONSOLEAPPLICATION4.OBJ|C:\USERS\JA\DESKTOP\NOWY FOLDER\SPRAWOZDANIE3\ZAD3\ZAD3\CONSOLEAPPLICATION4\X64\DEBUG\STDAFX.OBJ|C:\USERS\JA\DESKTOP\NOWY FOLDER\SPRAWOZDANIE3\ZAD3\ZAD3\CONSOLEAPPLICATION4\X64\DEBUG\TARGA.OBJ
C:\WINDOWS\GLOBALIZATION\SORTING\SORTDEFAULT.NLS
C:\USERS\JA\DESKTOP\NOWY FOLDER\SPRAWOZDANIE3\ZAD3\ZAD3\PACKAGES\NUPENGL.CORE.0.1.0.1\BUILD\NATIVE\LIB\X64\GLEW32.LIB
C:\USERS\JA\DESKTOP\NOWY FOLDER\SPRAWOZDANIE3\ZAD3\ZAD3\PACKAGES\NUPENGL.CORE.0.1.0.1\BUILD\NATIVE\LIB\X64\GLFW3DLL.LIB
C:\USERS\JA\DESKTOP\NOWY FOLDER\SPRAWOZDANIE3\ZAD3\ZAD3\PACKAGES\NUPENGL.CORE.0.1.0.1\BUILD\NATIVE\LIB\X64\FREEGLUT.LIB
C:\PROGRAM FILES (X86)\WINDOWS KITS\10\LIB\10.0.16299.0\UM\X64\KERNEL32.LIB
C:\PROGRAM FILES (X86)\WINDOWS KITS\10\LIB\10.0.16299.0\UM\X64\USER32.LIB
C:\PROGRAM FILES (X86)\WINDOWS KITS\10\LIB\10.0.16299.0\UM\X64\GDI32.LIB
C:\PROGRAM FILES (X86)\WINDOWS KITS\10\LIB\10.0.16299.0\UM\X64\WINSPOOL.LIB
C:\PROGRAM FILES (X86)\WINDOWS KITS\10\LIB\10.0.16299.0\UM\X64\COMDLG32.LIB
C:\PROGRAM FILES (X86)\WINDOWS KITS\10\LIB\10.0.16299.0\UM\X64\ADVAPI32.LIB
C:\PROGRAM FILES (X86)\WINDOWS KITS\10\LIB\10.0.16299.0\UM\X64\SHELL32.LIB
C:\PROGRAM FILES (X86)\WINDOWS KITS\10\LIB\10.0.16299.0\UM\X64\OLE32.LIB
C:\PROGRAM FILES (X86)\WINDOWS KITS\10\LIB\10.0.16299.0\UM\X64\OLEAUT32.LIB
C:\PROGRAM FILES (X86)\WINDOWS KITS\10\LIB\10.0.16299.0\UM\X64\UUID.LIB
C:\PROGRAM FILES (X86)\WINDOWS KITS\10\LIB\10.0.16299.0\UM\X64\ODBC32.LIB
C:\PROGRAM FILES (X86)\WINDOWS KITS\10\LIB\10.0.16299.0\UM\X64\ODBCCP32.LIB
C:\USERS\JA\DESKTOP\NOWY FOLDER\SPRAWOZDANIE3\ZAD3\ZAD3\CONSOLEAPPLICATION4\X64\DEBUG\CONSOLEAPPLICATION4.OBJ
C:\USERS\JA\DESKTOP\NOWY FOLDER\SPRAWOZDANIE3\ZAD3\ZAD3\CONSOLEAPPLICATION4\X64\DEBUG\STDAFX.OBJ
C:\USERS\JA\DESKTOP\NOWY FOLDER\SPRAWOZDANIE3\ZAD3\ZAD3\CONSOLEAPPLICATION4\X64\DEBUG\TARGA.OBJ
C:\PROGRAM FILES (X86)\WINDOWS KITS\10\LIB\10.0.16299.0\UM\X64\GLU32.LIB
C:\PROGRAM FILES (X86)\WINDOWS KITS\10\LIB\10.0.16299.0\UM\X64\OPENGL32.LIB
C:\PROGRAM FILES (X86)\WINDOWS KITS\10\LIB\10.0.16299.0\UM\X64\WINMM.LIB
C:\PROGRAM FILES (X86)\MICROSOFT VISUAL STUDIO\2017\COMMUNITY\VC\TOOLS\MSVC\14.12.25827\LIB\X64\MSVCRTD.LIB
C:\PROGRAM FILES (X86)\MICROSOFT VISUAL STUDIO\2017\COMMUNITY\VC\TOOLS\MSVC\14.12.25827\LIB\X64\OLDNAMES.LIB
C:\PROGRAM FILES (X86)\MICROSOFT VISUAL STUDIO\2017\COMMUNITY\VC\TOOLS\MSVC\14.12.25827\LIB\X64\VCRUNTIMED.LIB
C:\PROGRAM FILES (X86)\WINDOWS KITS\10\LIB\10.0.16299.0\UCRT\X64\UCRTD.LIB
C:\PROGRAM FILES (X86)\WINDOWS KITS\10\BIN\10.0.16299.0\X86\RC.EXE
C:\PROGRAM FILES (X86)\MICROSOFT VISUAL STUDIO\2017\COMMUNITY\VC\TOOLS\MSVC\14.12.25827\BIN\HOSTX86\X86\CVTRES.EXE
C:\WINDOWS\SYSTEM32\TZRES.DLL
^C:\USERS\JA\DESKTOP\GK PROJEKTY\SPRAWOZDANIE 3\ZAD3\ZAD3\CONSOLEAPPLICATION4\X64\DEBUG\CONSOLEAPPLICATION4.OBJ|C:\USERS\JA\DESKTOP\GK PROJEKTY\SPRAWOZDANIE 3\ZAD3\ZAD3\CONSOLEAPPLICATION4\X64\DEBUG\STDAFX.OBJ|C:\USERS\JA\DESKTOP\GK PROJEKTY\SPRAWOZDANIE 3\ZAD3\ZAD3\CONSOLEAPPLICATION4\X64\DEBUG\TARGA.OBJ
C:\WINDOWS\GLOBALIZATION\SORTING\SORTDEFAULT.NLS
C:\USERS\JA\DESKTOP\GK PROJEKTY\SPRAWOZDANIE 3\ZAD3\ZAD3\PACKAGES\NUPENGL.CORE.0.1.0.1\BUILD\NATIVE\LIB\X64\GLEW32.LIB
C:\USERS\JA\DESKTOP\GK PROJEKTY\SPRAWOZDANIE 3\ZAD3\ZAD3\PACKAGES\NUPENGL.CORE.0.1.0.1\BUILD\NATIVE\LIB\X64\GLFW3DLL.LIB
C:\USERS\JA\DESKTOP\GK PROJEKTY\SPRAWOZDANIE 3\ZAD3\ZAD3\PACKAGES\NUPENGL.CORE.0.1.0.1\BUILD\NATIVE\LIB\X64\FREEGLUT.LIB
C:\PROGRAM FILES (X86)\WINDOWS KITS\10\LIB\10.0.16299.0\UM\X64\KERNEL32.LIB
C:\PROGRAM FILES (X86)\WINDOWS KITS\10\LIB\10.0.16299.0\UM\X64\USER32.LIB
C:\PROGRAM FILES (X86)\WINDOWS KITS\10\LIB\10.0.16299.0\UM\X64\GDI32.LIB
C:\PROGRAM FILES (X86)\WINDOWS KITS\10\LIB\10.0.16299.0\UM\X64\WINSPOOL.LIB
C:\PROGRAM FILES (X86)\WINDOWS KITS\10\LIB\10.0.16299.0\UM\X64\COMDLG32.LIB
C:\PROGRAM FILES (X86)\WINDOWS KITS\10\LIB\10.0.16299.0\UM\X64\ADVAPI32.LIB
C:\PROGRAM FILES (X86)\WINDOWS KITS\10\LIB\10.0.16299.0\UM\X64\SHELL32.LIB
C:\PROGRAM FILES (X86)\WINDOWS KITS\10\LIB\10.0.16299.0\UM\X64\OLE32.LIB
C:\PROGRAM FILES (X86)\WINDOWS KITS\10\LIB\10.0.16299.0\UM\X64\OLEAUT32.LIB
C:\PROGRAM FILES (X86)\WINDOWS KITS\10\LIB\10.0.16299.0\UM\X64\UUID.LIB
C:\PROGRAM FILES (X86)\WINDOWS KITS\10\LIB\10.0.16299.0\UM\X64\ODBC32.LIB
C:\PROGRAM FILES (X86)\WINDOWS KITS\10\LIB\10.0.16299.0\UM\X64\ODBCCP32.LIB
C:\USERS\JA\DESKTOP\GK PROJEKTY\SPRAWOZDANIE 3\ZAD3\ZAD3\CONSOLEAPPLICATION4\X64\DEBUG\CONSOLEAPPLICATION4.OBJ
C:\USERS\JA\DESKTOP\GK PROJEKTY\SPRAWOZDANIE 3\ZAD3\ZAD3\CONSOLEAPPLICATION4\X64\DEBUG\STDAFX.OBJ
C:\USERS\JA\DESKTOP\GK PROJEKTY\SPRAWOZDANIE 3\ZAD3\ZAD3\CONSOLEAPPLICATION4\X64\DEBUG\TARGA.OBJ
C:\WINDOWS\SYSTEM32\TZRES.DLL
C:\PROGRAM FILES (X86)\WINDOWS KITS\10\LIB\10.0.16299.0\UM\X64\GLU32.LIB
C:\PROGRAM FILES (X86)\WINDOWS KITS\10\LIB\10.0.16299.0\UM\X64\OPENGL32.LIB
C:\PROGRAM FILES (X86)\WINDOWS KITS\10\LIB\10.0.16299.0\UM\X64\WINMM.LIB
C:\PROGRAM FILES (X86)\MICROSOFT VISUAL STUDIO\2017\COMMUNITY\VC\TOOLS\MSVC\14.12.25827\LIB\X64\MSVCRTD.LIB
C:\PROGRAM FILES (X86)\MICROSOFT VISUAL STUDIO\2017\COMMUNITY\VC\TOOLS\MSVC\14.12.25827\LIB\X64\OLDNAMES.LIB
C:\PROGRAM FILES (X86)\MICROSOFT VISUAL STUDIO\2017\COMMUNITY\VC\TOOLS\MSVC\14.12.25827\LIB\X64\VCRUNTIMED.LIB
C:\PROGRAM FILES (X86)\WINDOWS KITS\10\LIB\10.0.16299.0\UCRT\X64\UCRTD.LIB
C:\PROGRAM FILES (X86)\WINDOWS KITS\10\BIN\10.0.16299.0\X86\RC.EXE
C:\PROGRAM FILES (X86)\MICROSOFT VISUAL STUDIO\2017\COMMUNITY\VC\TOOLS\MSVC\14.12.25827\BIN\HOSTX86\X86\CVTRES.EXE
