^D:\MOJE PLIKI\ATH\4 SEM\GRAFIKA\GIT\SPRAWOZDANIE3\ZAD2\ZAD2\STDAFX.CPP
D:\MOJE PLIKI\ATH\4 SEM\GRAFIKA\GIT\SPRAWOZDANIE3\ZAD2\ZAD2\DEBUG\ZAD2.PCH
D:\MOJE PLIKI\ATH\4 SEM\GRAFIKA\GIT\SPRAWOZDANIE3\ZAD2\ZAD2\DEBUG\VC141.PDB
D:\MOJE PLIKI\ATH\4 SEM\GRAFIKA\GIT\SPRAWOZDANIE3\ZAD2\ZAD2\DEBUG\VC141.IDB
D:\MOJE PLIKI\ATH\4 SEM\GRAFIKA\GIT\SPRAWOZDANIE3\ZAD2\ZAD2\DEBUG\STDAFX.OBJ
^D:\MOJE PLIKI\ATH\4 SEM\GRAFIKA\GIT\SPRAWOZDANIE3\ZAD2\ZAD2\ZAD2.CPP
D:\MOJE PLIKI\ATH\4 SEM\GRAFIKA\GIT\SPRAWOZDANIE3\ZAD2\ZAD2\DEBUG\VC141.PDB
D:\MOJE PLIKI\ATH\4 SEM\GRAFIKA\GIT\SPRAWOZDANIE3\ZAD2\ZAD2\DEBUG\VC141.IDB
D:\MOJE PLIKI\ATH\4 SEM\GRAFIKA\GIT\SPRAWOZDANIE3\ZAD2\ZAD2\DEBUG\ZAD2.OBJ
