^C:\USERS\WOJAS\DESKTOP\PAULOVA97-GRAFIKA-KOMPUTEROWA-D48CC80A7EC1\LAB8\LAB8\STDAFX.CPP
C:\USERS\WOJAS\DESKTOP\PAULOVA97-GRAFIKA-KOMPUTEROWA-D48CC80A7EC1\LAB8\LAB8\X64\DEBUG\LAB8.PCH
C:\USERS\WOJAS\DESKTOP\PAULOVA97-GRAFIKA-KOMPUTEROWA-D48CC80A7EC1\LAB8\LAB8\X64\DEBUG\VC141.PDB
C:\USERS\WOJAS\DESKTOP\PAULOVA97-GRAFIKA-KOMPUTEROWA-D48CC80A7EC1\LAB8\LAB8\X64\DEBUG\VC141.IDB
C:\USERS\WOJAS\DESKTOP\PAULOVA97-GRAFIKA-KOMPUTEROWA-D48CC80A7EC1\LAB8\LAB8\X64\DEBUG\STDAFX.OBJ
^C:\USERS\WOJAS\DESKTOP\PAULOVA97-GRAFIKA-KOMPUTEROWA-D48CC80A7EC1\LAB8\LAB8\LAB8.CPP
C:\USERS\WOJAS\DESKTOP\PAULOVA97-GRAFIKA-KOMPUTEROWA-D48CC80A7EC1\LAB8\LAB8\X64\DEBUG\VC141.PDB
C:\USERS\WOJAS\DESKTOP\PAULOVA97-GRAFIKA-KOMPUTEROWA-D48CC80A7EC1\LAB8\LAB8\X64\DEBUG\VC141.IDB
C:\USERS\WOJAS\DESKTOP\PAULOVA97-GRAFIKA-KOMPUTEROWA-D48CC80A7EC1\LAB8\LAB8\X64\DEBUG\LAB8.OBJ
