^C:\USERS\WOJAS\DESKTOP\PAULOVA97-GRAFIKA-KOMPUTEROWA-D48CC80A7EC1\LAB8\LAB8\X64\DEBUG\LAB8.OBJ|C:\USERS\WOJAS\DESKTOP\PAULOVA97-GRAFIKA-KOMPUTEROWA-D48CC80A7EC1\LAB8\LAB8\X64\DEBUG\STDAFX.OBJ
C:\USERS\WOJAS\DESKTOP\PAULOVA97-GRAFIKA-KOMPUTEROWA-D48CC80A7EC1\LAB8\PACKAGES\NUPENGL.CORE.0.1.0.1\BUILD\NATIVE\LIB\X64\GLEW32.LIB
C:\USERS\WOJAS\DESKTOP\PAULOVA97-GRAFIKA-KOMPUTEROWA-D48CC80A7EC1\LAB8\PACKAGES\NUPENGL.CORE.0.1.0.1\BUILD\NATIVE\LIB\X64\GLFW3DLL.LIB
C:\USERS\WOJAS\DESKTOP\PAULOVA97-GRAFIKA-KOMPUTEROWA-D48CC80A7EC1\LAB8\PACKAGES\NUPENGL.CORE.0.1.0.1\BUILD\NATIVE\LIB\X64\FREEGLUT.LIB
C:\PROGRAM FILES (X86)\WINDOWS KITS\10\LIB\10.0.16299.0\UM\X64\KERNEL32.LIB
C:\PROGRAM FILES (X86)\WINDOWS KITS\10\LIB\10.0.16299.0\UM\X64\USER32.LIB
C:\PROGRAM FILES (X86)\WINDOWS KITS\10\LIB\10.0.16299.0\UM\X64\GDI32.LIB
C:\PROGRAM FILES (X86)\WINDOWS KITS\10\LIB\10.0.16299.0\UM\X64\WINSPOOL.LIB
C:\PROGRAM FILES (X86)\WINDOWS KITS\10\LIB\10.0.16299.0\UM\X64\COMDLG32.LIB
C:\PROGRAM FILES (X86)\WINDOWS KITS\10\LIB\10.0.16299.0\UM\X64\ADVAPI32.LIB
C:\PROGRAM FILES (X86)\WINDOWS KITS\10\LIB\10.0.16299.0\UM\X64\SHELL32.LIB
C:\PROGRAM FILES (X86)\WINDOWS KITS\10\LIB\10.0.16299.0\UM\X64\OLE32.LIB
C:\PROGRAM FILES (X86)\WINDOWS KITS\10\LIB\10.0.16299.0\UM\X64\OLEAUT32.LIB
C:\PROGRAM FILES (X86)\WINDOWS KITS\10\LIB\10.0.16299.0\UM\X64\UUID.LIB
C:\PROGRAM FILES (X86)\WINDOWS KITS\10\LIB\10.0.16299.0\UM\X64\ODBC32.LIB
C:\PROGRAM FILES (X86)\WINDOWS KITS\10\LIB\10.0.16299.0\UM\X64\ODBCCP32.LIB
C:\USERS\WOJAS\DESKTOP\PAULOVA97-GRAFIKA-KOMPUTEROWA-D48CC80A7EC1\LAB8\LAB8\X64\DEBUG\LAB8.OBJ
C:\USERS\WOJAS\DESKTOP\PAULOVA97-GRAFIKA-KOMPUTEROWA-D48CC80A7EC1\LAB8\LAB8\X64\DEBUG\STDAFX.OBJ
C:\WINDOWS\GLOBALIZATION\SORTING\SORTDEFAULT.NLS
C:\PROGRAM FILES (X86)\WINDOWS KITS\10\LIB\10.0.16299.0\UM\X64\GLU32.LIB
C:\PROGRAM FILES (X86)\WINDOWS KITS\10\LIB\10.0.16299.0\UM\X64\OPENGL32.LIB
C:\PROGRAM FILES (X86)\WINDOWS KITS\10\LIB\10.0.16299.0\UM\X64\WINMM.LIB
C:\PROGRAM FILES (X86)\MICROSOFT VISUAL STUDIO\2017\ENTERPRISE\VC\TOOLS\MSVC\14.13.26128\LIB\X64\MSVCRTD.LIB
C:\PROGRAM FILES (X86)\MICROSOFT VISUAL STUDIO\2017\ENTERPRISE\VC\TOOLS\MSVC\14.13.26128\LIB\X64\OLDNAMES.LIB
C:\PROGRAM FILES (X86)\MICROSOFT VISUAL STUDIO\2017\ENTERPRISE\VC\TOOLS\MSVC\14.13.26128\LIB\X64\VCRUNTIMED.LIB
C:\PROGRAM FILES (X86)\WINDOWS KITS\10\LIB\10.0.16299.0\UCRT\X64\UCRTD.LIB
C:\PROGRAM FILES (X86)\WINDOWS KITS\10\BIN\10.0.16299.0\X86\RC.EXE
C:\PROGRAM FILES (X86)\MICROSOFT VISUAL STUDIO\2017\ENTERPRISE\VC\TOOLS\MSVC\14.13.26128\BIN\HOSTX86\X86\CVTRES.EXE
C:\WINDOWS\SYSTEM32\TZRES.DLL
C:\PROGRAM FILES (X86)\MICROSOFT VISUAL STUDIO\2017\ENTERPRISE\VC\TOOLS\MSVC\14.13.26128\BIN\HOSTX86\X64\VCTIP.EXE
