^C:\USERS\JA\DESKTOP\GK PROJEKTY\SPRAWOZDANIE 1\SPRAWOZDANIE 1\STDAFX.CPP
C:\USERS\JA\DESKTOP\GK PROJEKTY\SPRAWOZDANIE 1\SPRAWOZDANIE 1\DEBUG\SPRAWOZDANIE 1.PCH
C:\USERS\JA\DESKTOP\GK PROJEKTY\SPRAWOZDANIE 1\SPRAWOZDANIE 1\DEBUG\VC141.PDB
C:\USERS\JA\DESKTOP\GK PROJEKTY\SPRAWOZDANIE 1\SPRAWOZDANIE 1\DEBUG\VC141.IDB
C:\USERS\JA\DESKTOP\GK PROJEKTY\SPRAWOZDANIE 1\SPRAWOZDANIE 1\DEBUG\STDAFX.OBJ
^C:\USERS\JA\DESKTOP\GK PROJEKTY\SPRAWOZDANIE 1\SPRAWOZDANIE 1\SPRAWOZDANIE 1.CPP
C:\USERS\JA\DESKTOP\GK PROJEKTY\SPRAWOZDANIE 1\SPRAWOZDANIE 1\DEBUG\VC141.PDB
C:\USERS\JA\DESKTOP\GK PROJEKTY\SPRAWOZDANIE 1\SPRAWOZDANIE 1\DEBUG\VC141.IDB
C:\USERS\JA\DESKTOP\GK PROJEKTY\SPRAWOZDANIE 1\SPRAWOZDANIE 1\DEBUG\SPRAWOZDANIE 1.OBJ
