^C:\USERS\JA\DESKTOP\NOWY FOLDER\SPRAWOZDANIE3\ZAD4\CONSOLEAPPLICATION4\X64\DEBUG\CONSOLEAPPLICATION4.OBJ|C:\USERS\JA\DESKTOP\NOWY FOLDER\SPRAWOZDANIE3\ZAD4\CONSOLEAPPLICATION4\X64\DEBUG\STDAFX.OBJ|C:\USERS\JA\DESKTOP\NOWY FOLDER\SPRAWOZDANIE3\ZAD4\CONSOLEAPPLICATION4\X64\DEBUG\TARGA.OBJ
/OUT:"C:\USERS\JA\DESKTOP\NOWY FOLDER\SPRAWOZDANIE3\ZAD4\X64\DEBUG\CONSOLEAPPLICATION4.EXE" /INCREMENTAL /NOLOGO "C:\USERS\JA\DESKTOP\NOWY FOLDER\SPRAWOZDANIE3\ZAD4\PACKAGES\NUPENGL.CORE.0.1.0.1\BUILD\NATIVE\../..//BUILD/NATIVE/LIB/X64\GLEW32.LIB" "C:\USERS\JA\DESKTOP\NOWY FOLDER\SPRAWOZDANIE3\ZAD4\PACKAGES\NUPENGL.CORE.0.1.0.1\BUILD\NATIVE\../..//BUILD/NATIVE/LIB/X64\GLFW3DLL.LIB" "C:\USERS\JA\DESKTOP\NOWY FOLDER\SPRAWOZDANIE3\ZAD4\PACKAGES\NUPENGL.CORE.0.1.0.1\BUILD\NATIVE\../..//BUILD/NATIVE/LIB/X64\FREEGLUT.LIB" KERNEL32.LIB USER32.LIB GDI32.LIB WINSPOOL.LIB COMDLG32.LIB ADVAPI32.LIB SHELL32.LIB OLE32.LIB OLEAUT32.LIB UUID.LIB ODBC32.LIB ODBCCP32.LIB /MANIFEST /MANIFESTUAC:"level='asInvoker' uiAccess='false'" /manifest:embed /DEBUG:FASTLINK /PDB:"C:\USERS\JA\DESKTOP\NOWY FOLDER\SPRAWOZDANIE3\ZAD4\X64\DEBUG\CONSOLEAPPLICATION4.PDB" /SUBSYSTEM:CONSOLE /TLBID:1 /DYNAMICBASE /NXCOMPAT /IMPLIB:"C:\USERS\JA\DESKTOP\NOWY FOLDER\SPRAWOZDANIE3\ZAD4\X64\DEBUG\CONSOLEAPPLICATION4.LIB" /MACHINE:X64 X64\DEBUG\CONSOLEAPPLICATION4.OBJX64\DEBUG\STDAFX.OBJX64\DEBUG\TARGA.OBJ
^C:\USERS\JA\DESKTOP\GK PROJEKTY\SPRAWOZDANIE 3\ZAD4\CONSOLEAPPLICATION4\X64\DEBUG\CONSOLEAPPLICATION4.OBJ|C:\USERS\JA\DESKTOP\GK PROJEKTY\SPRAWOZDANIE 3\ZAD4\CONSOLEAPPLICATION4\X64\DEBUG\STDAFX.OBJ|C:\USERS\JA\DESKTOP\GK PROJEKTY\SPRAWOZDANIE 3\ZAD4\CONSOLEAPPLICATION4\X64\DEBUG\TARGA.OBJ
/OUT:"C:\USERS\JA\DESKTOP\GK PROJEKTY\SPRAWOZDANIE 3\ZAD4\X64\DEBUG\CONSOLEAPPLICATION4.EXE" /INCREMENTAL /NOLOGO "C:\USERS\JA\DESKTOP\GK PROJEKTY\SPRAWOZDANIE 3\ZAD4\PACKAGES\NUPENGL.CORE.0.1.0.1\BUILD\NATIVE\../..//BUILD/NATIVE/LIB/X64\GLEW32.LIB" "C:\USERS\JA\DESKTOP\GK PROJEKTY\SPRAWOZDANIE 3\ZAD4\PACKAGES\NUPENGL.CORE.0.1.0.1\BUILD\NATIVE\../..//BUILD/NATIVE/LIB/X64\GLFW3DLL.LIB" "C:\USERS\JA\DESKTOP\GK PROJEKTY\SPRAWOZDANIE 3\ZAD4\PACKAGES\NUPENGL.CORE.0.1.0.1\BUILD\NATIVE\../..//BUILD/NATIVE/LIB/X64\FREEGLUT.LIB" KERNEL32.LIB USER32.LIB GDI32.LIB WINSPOOL.LIB COMDLG32.LIB ADVAPI32.LIB SHELL32.LIB OLE32.LIB OLEAUT32.LIB UUID.LIB ODBC32.LIB ODBCCP32.LIB /MANIFEST /MANIFESTUAC:"level='asInvoker' uiAccess='false'" /manifest:embed /DEBUG:FASTLINK /PDB:"C:\USERS\JA\DESKTOP\GK PROJEKTY\SPRAWOZDANIE 3\ZAD4\X64\DEBUG\CONSOLEAPPLICATION4.PDB" /SUBSYSTEM:CONSOLE /TLBID:1 /DYNAMICBASE /NXCOMPAT /IMPLIB:"C:\USERS\JA\DESKTOP\GK PROJEKTY\SPRAWOZDANIE 3\ZAD4\X64\DEBUG\CONSOLEAPPLICATION4.LIB" /MACHINE:X64 X64\DEBUG\CONSOLEAPPLICATION4.OBJX64\DEBUG\STDAFX.OBJX64\DEBUG\TARGA.OBJ
