^C:\USERS\JA\DESKTOP\GK PROJEKTY\SPRAWOZDANIE 2\ZADANIE 2\ZADANIE 2\STDAFX.CPP
C:\USERS\JA\DESKTOP\GK PROJEKTY\SPRAWOZDANIE 2\ZADANIE 2\ZADANIE 2\DEBUG\ZADANIE 2.PCH
C:\USERS\JA\DESKTOP\GK PROJEKTY\SPRAWOZDANIE 2\ZADANIE 2\ZADANIE 2\DEBUG\VC141.PDB
C:\USERS\JA\DESKTOP\GK PROJEKTY\SPRAWOZDANIE 2\ZADANIE 2\ZADANIE 2\DEBUG\VC141.IDB
C:\USERS\JA\DESKTOP\GK PROJEKTY\SPRAWOZDANIE 2\ZADANIE 2\ZADANIE 2\DEBUG\STDAFX.OBJ
^C:\USERS\JA\DESKTOP\GK PROJEKTY\SPRAWOZDANIE 2\ZADANIE 2\ZADANIE 2\ZADANIE 2.CPP
C:\USERS\JA\DESKTOP\GK PROJEKTY\SPRAWOZDANIE 2\ZADANIE 2\ZADANIE 2\DEBUG\VC141.PDB
C:\USERS\JA\DESKTOP\GK PROJEKTY\SPRAWOZDANIE 2\ZADANIE 2\ZADANIE 2\DEBUG\VC141.IDB
C:\USERS\JA\DESKTOP\GK PROJEKTY\SPRAWOZDANIE 2\ZADANIE 2\ZADANIE 2\DEBUG\ZADANIE 2.OBJ
